module gifer

require (
	code.cloudfoundry.org/bytefmt v0.0.0-20180906201452-2aa6f33b730c // indirect
	github.com/caarlos0/env v3.5.0+incompatible
	github.com/cloudfoundry/bytefmt v0.0.0-20180906201452-2aa6f33b730c
	github.com/gorilla/mux v1.7.2
	github.com/onsi/ginkgo v1.8.0 // indirect
	github.com/onsi/gomega v1.5.0 // indirect
	github.com/stretchr/testify v1.3.0 // indirect
	golang.org/x/image v0.0.0-20180926015637-991ec62608f3
)
